{
  "shell_port": 56201,
  "iopub_port": 49855,
  "stdin_port": 40001,
  "control_port": 33297,
  "hb_port": 45319,
  "ip": "127.0.0.1",
  "key": "9b9354bb-7771f61c22259189aa7dc499",
  "transport": "tcp",
  "signature_scheme": "hmac-sha256",
  "kernel_name": ""
}